[
    {
        "sale": true,
        "count": "10",
        "allsoldTitle": "Know what?",
        "allsoldText": "We do not have premade soups. Every soup cooked right after ordering. Always fresh and delicious.",
        "allsold": "assets/img/parsley.png",
        "sallimg": "assets/img/special/icon-special.png",
        "image": "assets/img/soups/vietnamese-chicken-soup-with-rice.jpg",
        "title": "Elizabeth Street Café's Chicken & Rice Soup",
        "text": "Sticky rice is worth using for this porridgey, comforting chicken soup recipe; it releases lots of creamy starches and helps builds nice body as it cooks.",
        "price": "$3,50 for one",
        "saleprice": "$3,50 for 2 soups"
    },
    {
        "sale": false,
        "count": "10",
        "allsoldTitle": "Know what?",
        "allsoldText": "We do not have premade soups. Every soup cooked right after ordering. Always fresh and delicious.",
        "allsold": "assets/img/parsley.png",
        "sallimg": "assets/img/special/icon-special.png",
        "image": "assets/img/soups/carrot-coconut-soup.jpg",
        "title": "Carrot-Coconut Soup",
        "text": "If you like things extra spicy, pass some chili sauce at the table.",
        "price": "$8,50",
        "saleprice": ""
    },
    {
        "sale": false,
        "count": "10",
        "allsoldTitle": "Know what?",
        "allsoldText": "We do not have premade soups. Every soup cooked right after ordering. Always fresh and delicious.",
        "allsold": "assets/img/parsley.png",
        "sallimg": "assets/img/special/icon-special.png",
        "image": "assets/img/soups/white-bean-chili.jpg",
        "title": "Split Pea Soup",
        "text": "If you want to make this soup but you don’t have a ham bone, use two ham hocks instead.",
        "price": "$9,99",
        "saleprice": ""
    },
    {
        "sale": false,
        "count": "10",
        "allsoldTitle": "Know what?",
        "allsoldText": "We do not have premade soups. Every soup cooked right after ordering. Always fresh and delicious.",
        "allsold": "assets/img/parsley.png",
        "sallimg": "assets/img/special/icon-special.png",
        "image": "assets/img/soups/scott-desimons-lobster-stew.jpg",
        "title": "Scott DeSimon's Lobster Stew",
        "text": "The subtle seasonings in this simple stew wont overwhelm the delicate lobster meat.",
        "price": "$12,00",
        "saleprice": ""
    },
    {
        "sale": false,
        "count": "10",
        "allsoldTitle": "Know what?",
        "allsoldText": "We do not have premade soups. Every soup cooked right after ordering. Always fresh and delicious.",
        "allsold": "assets/img/parsley.png",
        "sallimg": "assets/img/special/icon-special.png",
        "image": "assets/img/soups/veggie-kimchi-soup.jpg",
        "title": "Kimchi and Vegetable Soup",
        "text": "This kimchi and vegetable soup is healthy, sure. But it's also really darn good.",
        "price": "$7,00",
        "saleprice": ""
    },
    {
        "sale": false,
        "count": "0",
        "allsoldTitle": "Know what?",
        "allsoldText": "We do not have premade soups. Every soup cooked right after ordering. Always fresh and delicious.",
        "allsold": "assets/img/parsley.png",
        "sallimg": "assets/img/special/icon-special.png",
        "image": "assets/img/soups/miso-soba.jpg",
        "title": "Soba, Mushroom, and Carrot Miso Soup",
        "text": "Wholesome, filling, and good for your digestive system—just three more reasons to love miso soup.",
        "price": "$6,00",
        "saleprice": ""
    },
    {
        "sale": false,
        "count": "0",
        "allsoldTitle": "Know what?",
        "allsoldText": "We do not have premade soups. Every soup cooked right after ordering. Always fresh and delicious.",
        "allsold": "assets/img/parsley.png",
        "sallimg": "assets/img/special/icon-special.png",
        "image": "assets/img/soups/turmeric-ginger-chicken-soup.jpg",
        "title": "Turmeric-Ginger Chicken Soup",
        "text": "Chicken noodle soup never gets old. If you don’t have udon for this recipe, use rice noodles or regular old spaghetti. A small knob of fresh turmeric can replace the dried type.",
        "price": "$5,50",
        "saleprice": ""
    },
    {
        "sale": false,
        "count": "10",
        "allsoldTitle": "Know what?",
        "allsoldText": "We do not have premade soups. Every soup cooked right after ordering. Always fresh and delicious.",
        "allsold": "assets/img/parsley.png",
        "sallimg": "assets/img/special/icon-special.png",
        "image": "assets/img/soups/split-pea-soup.jpg",
        "title": "White Bean Chili with Winter Vegetables",
        "text": "If you like things extra spicy, pass some chili sauce at the table.",
        "price": "$2,99",
        "saleprice": ""
    },
    {
        "sale": false,
        "count": "10",
        "allsoldTitle": "Know what?",
        "allsoldText": "We do not have premade soups. Every soup cooked right after ordering. Always fresh and delicious.",
        "allsold": "assets/img/parsley.png",
        "sallimg": "assets/img/special/icon-special.png",
        "image": "assets/img/soups/carrot-coconut-soup.jpg",
        "title": "Carrot-Coconut Soup",
        "text": "If you like things extra spicy, pass some chili sauce at the table.",
        "price": "$8,50",
        "saleprice": ""
    },
    {
        "sale": false,
        "count": "10",
        "allsoldTitle": "Know what?",
        "allsoldText": "We do not have premade soups. Every soup cooked right after ordering. Always fresh and delicious.",
        "allsold": "assets/img/parsley.png",
        "sallimg": "assets/img/special/icon-special.png",
        "image": "assets/img/soups/veggie-kimchi-soup.jpg",
        "title": "Kimchi and Vegetable Soup",
        "text": "This kimchi and vegetable soup is healthy, sure. But it's also really darn good.",
        "price": "$7,00",
        "saleprice": ""
    },
    {
        "sale": false,
        "count": "10",
        "allsoldTitle": "Know what?",
        "allsoldText": "We do not have premade soups. Every soup cooked right after ordering. Always fresh and delicious.",
        "allsold": "assets/img/parsley.png",
        "sallimg": "assets/img/special/icon-special.png",
        "image": "assets/img/soups/white-bean-chili.jpg",
        "title": "Split Pea Soup",
        "text": "If you want to make this soup but you don’t have a ham bone, use two ham hocks instead.",
        "price": "$9,99",
        "saleprice": ""
    },
    {
        "sale": false,
        "count": "10",
        "allsoldTitle": "Know what?",
        "allsoldText": "We do not have premade soups. Every soup cooked right after ordering. Always fresh and delicious.",
        "allsold": "assets/img/parsley.png",
        "sallimg": "assets/img/special/icon-special.png",
        "image": "assets/img/soups/split-pea-soup.jpg",
        "title": "White Bean Chili with Winter Vegetables",
        "text": "If you like things extra spicy, pass some chili sauce at the table.",
        "price": "$2,99",
        "saleprice": ""
    }
]