[
    {
        "image": false,
        "link": "#",
        "text": "Contact support"
    },
    {
        "image": false,
        "link": "#",
        "text": "Work in Sup Soup"
    },
    {
        "image": true,
        "link": "#",
        "text": "Design by ",
        "img": "/assets/img/logo/logo-osa.svg"
    }
]