<svg xmlns="http://www.w3.org/2000/svg" xmlns:xlink="http://www.w3.org/1999/xlink" width="70" height="70" viewBox="0 0 70 70">
    <defs>
        <ellipse id="a" cx="34.916" cy="35" rx="34.916" ry="35"/>
    </defs>
    <g fill="none" fill-rule="evenodd">
        <g>
            <use fill="#71BA23" xlink:href="#a"/>
            <ellipse cx="34.916" cy="35" stroke="#FFF" stroke-width="6" rx="31.916" ry="32"/>
            <ellipse cx="34.916" cy="35" stroke="#669C2B" stroke-width="2" rx="33.916" ry="34"/>
        </g>
        <path fill="#FFF" d="M28.337 22.562c-1.3-1.002-2.813-1.515-4.515-1.562-1.158 0-2.033.187-2.624.513-.874.466-1.324 1.12-1.347 1.982 0 1.073.638 1.866 1.962 2.426 1.395.56 2.198.91 2.435 1.002.803.42 1.205.91 1.205 1.446-.07.747-.638 1.143-1.678 1.143-.898 0-1.868-.42-2.884-1.283l-.426.42c-.189.257-.307.467-.354.607 1.064 1.166 2.27 1.749 3.64 1.749 2.151-.047 3.286-.887 3.428-2.612 0-1.026-.567-1.843-1.678-2.426-.379-.186-1.277-.583-2.648-1.189-.827-.327-1.23-.746-1.23-1.26 0-.722.71-1.095 2.152-1.095 1.324 0 2.6.443 3.877 1.282.189-.116.33-.28.449-.513.142-.256.236-.466.236-.63zm11.513 7.93c-.048-.397-.19-1.82-.473-4.245-.355-2.775-.638-4.477-.875-5.13-.614.023-1.087.116-1.37.303.07.956.306 3.031.708 6.203-1.087 1.19-2.27 1.772-3.593 1.772-1.087 0-1.891-.303-2.364-.956-.402-.466-.59-1.236-.59-2.262s.236-2.588.732-4.64c-.355-.234-.804-.374-1.347-.42-.71 2.168-1.04 3.894-1.04 5.177 0 1.422.33 2.495.945 3.241.71.957 1.938 1.423 3.64 1.423 1.513-.023 2.814-.63 3.925-1.842.094.653.212 1.189.307 1.632.378 0 .85-.07 1.395-.256zm11.3-4.105c0-1.889-.875-3.335-2.625-4.314-1.276-.63-2.742-.956-4.397-.956a5.87 5.87 0 0 0-.07.723c0 .14 0 .373.023.7 1.23.092 2.293.326 3.215.699 1.466.746 2.199 1.772 2.199 3.125 0 1.959-1.064 2.985-3.192 3.055-.709 0-1.395-.093-2.104-.303-.094.373-.142.606-.142.7-.047.326-.047.536-.047.652.71.327 1.49.467 2.34.467 3.192 0 4.8-1.516 4.8-4.548zm-8.014 1.866c0-2.472-.024-4.828-.048-7.043-.354-.07-.59-.117-.733-.117l-.709.024c-.189 1.632-.26 3.8-.26 6.506 0 2.705.024 5.224.118 7.626.284.047.544.093.757.093.118 0 .354-.023.709-.046.095-2.286.166-4.618.166-7.043zM22.486 39.22c-1.3-1.003-2.813-1.516-4.515-1.562-1.158 0-2.033.186-2.624.513-.874.466-1.323 1.12-1.347 1.982 0 1.073.638 1.866 1.962 2.425 1.395.56 2.199.91 2.435 1.003.804.42 1.206.91 1.206 1.446-.071.746-.639 1.143-1.679 1.143-.898 0-1.867-.42-2.884-1.283l-.425.42c-.19.256-.308.466-.355.606 1.064 1.166 2.27 1.75 3.64 1.75 2.152-.047 3.286-.887 3.428-2.613 0-1.026-.567-1.842-1.678-2.425-.378-.187-1.277-.583-2.648-1.19-.827-.326-1.229-.746-1.229-1.259 0-.723.71-1.096 2.151-1.096 1.324 0 2.6.443 3.877 1.283.19-.117.33-.28.45-.513.141-.257.236-.467.236-.63zm11.466 3.662c0 .84-.26 1.632-.757 2.355-.544.746-1.182 1.236-1.891 1.47-.19-.28-.307-.467-.355-.584-.047-.093-.165-.28-.33-.56.425-.28.827-.676 1.205-1.189.331-.49.497-1.003.497-1.562 0-1.003-.355-1.936-1.064-2.776.26-.443.59-.746 1.016-.91 1.111.98 1.679 2.216 1.679 3.756zm-2.79-4.501c-.023.28-.118.513-.283.746-.119.233-.213.396-.308.49-.614-.304-1.205-.467-1.796-.467-1.04.024-1.892.443-2.577 1.283-.544.7-.804 1.492-.804 2.402 0 .886.284 1.702.898 2.402.615.653 1.348.98 2.246.98.426 0 .851-.07 1.277-.21.236.35.354.746.402 1.212-.45.303-1.017.443-1.679.443-1.442 0-2.6-.443-3.498-1.376-.922-.98-1.372-2.145-1.372-3.474 0-1.33.426-2.496 1.277-3.499.97-1.049 2.246-1.585 3.806-1.632.946 0 1.75.233 2.411.7zM45.7 47.149c-.047-.396-.189-1.819-.472-4.244-.355-2.775-.639-4.478-.875-5.13-.615.023-1.087.116-1.371.302.07.957.307 3.032.709 6.204-1.087 1.19-2.27 1.772-3.593 1.772-1.088 0-1.891-.303-2.364-.956-.402-.466-.591-1.236-.591-2.262s.236-2.589.733-4.64c-.355-.234-.804-.374-1.348-.42-.709 2.168-1.04 3.894-1.04 5.177 0 1.422.331 2.495.946 3.241.709.956 1.938 1.423 3.64 1.423 1.513-.024 2.813-.63 3.924-1.843.095.653.213 1.19.308 1.633.378 0 .85-.07 1.394-.257zM57 43.045c0-1.89-.875-3.335-2.624-4.315-1.276-.63-2.742-.956-4.397-.956a5.87 5.87 0 0 0-.07.723c0 .14 0 .373.023.7 1.23.093 2.293.326 3.215.7 1.465.746 2.198 1.772 2.198 3.124 0 1.96-1.064 2.986-3.191 3.056-.71 0-1.395-.094-2.104-.304-.095.373-.142.607-.142.7-.047.326-.047.536-.047.653.71.326 1.49.466 2.34.466 3.192 0 4.799-1.515 4.799-4.547zm-8.014 1.865c0-2.472-.023-4.827-.047-7.042-.355-.07-.591-.117-.733-.117l-.709.023c-.19 1.633-.26 3.802-.26 6.507 0 2.705.024 5.224.118 7.626.284.046.544.093.757.093.118 0 .354-.023.709-.047.094-2.285.165-4.617.165-7.043z"/>
        <path fill="#86CE37" d="M61.761 0h8.027c0 7.75-6.283 14.034-14.034 14.034h-8.027C47.727 6.284 54.01 0 61.761 0z"/>
    </g>
</svg>
